{
    "defaultSeverity": "error",
    "extends": [
        "tslint:recommended", "tslint-react", "tslint-config-prettier"
    ],
    "linterOptions": {
        "exclude": [
            "**/*.js"
        ]
    },
    "jsRules": {
    },
    "rules": {
        "semicolon": [true, "never"],
        "quotemark": [true, "single", "avoid-escape", "jsx-double", "avoid-template"],
        "object-literal-sort-keys": false,
        "ordered-imports": false,
        "jsx-no-multiline-js": false,
        "max-classes-per-file": false
    },
    "rulesDirectory": []
}